{
	"info": {
		"_postman_id": "2c3b1e16-50c2-4254-b103-0334e74b456d",
		"name": "s34-activity",
		"schema": "https://schema.getpostman.com/json/collection/v2.1.0/collection.json",
		"_exporter_id": "26691510"
	},
	"item": [
		{
			"name": "Get to /home endpoint",
			"request": {
				"method": "GET",
				"header": [],
				"url": {
					"raw": "localhost:3000/home",
					"host": [
						"localhost"
					],
					"port": "3000",
					"path": [
						"home"
					]
				}
			},
			"response": []
		},
		{
			"name": "ADD'L: Post username and password to database (EMPTY)",
			"request": {
				"method": "POST",
				"header": [],
				"body": {
					"mode": "raw",
					"raw": "{\r\n    \"username\" : \"\",\r\n    \"password\" : \"\"\r\n}",
					"options": {
						"raw": {
							"language": "json"
						}
					}
				},
				"url": {
					"raw": "localhost:3000/users",
					"host": [
						"localhost"
					],
					"port": "3000",
					"path": [
						"users"
					]
				}
			},
			"response": []
		},
		{
			"name": "ADD'L: Post username and password to database (EMPTY) Copy",
			"request": {
				"method": "POST",
				"header": [],
				"body": {
					"mode": "raw",
					"raw": "{\r\n    \"username\" : \"johndoe\",\r\n    \"password\" : \"johns1234@\"\r\n}",
					"options": {
						"raw": {
							"language": "json"
						}
					}
				},
				"url": {
					"raw": "localhost:3000/users",
					"host": [
						"localhost"
					],
					"port": "3000",
					"path": [
						"users"
					]
				}
			},
			"response": []
		},
		{
			"name": "Get the users' array",
			"request": {
				"method": "GET",
				"header": [],
				"url": {
					"raw": "localhost:3000/users",
					"host": [
						"localhost"
					],
					"port": "3000",
					"path": [
						"users"
					]
				}
			},
			"response": []
		},
		{
			"name": "Delete a user",
			"request": {
				"method": "DELETE",
				"header": [],
				"body": {
					"mode": "raw",
					"raw": "{\r\n    \"username\": \"dustinsantos\"\r\n}",
					"options": {
						"raw": {
							"language": "json"
						}
					}
				},
				"url": {
					"raw": "localhost:3000/delete-users",
					"host": [
						"localhost"
					],
					"port": "3000",
					"path": [
						"delete-users"
					]
				}
			},
			"response": []
		}
	]
}